target	COPEB	ELK1	GATA3	IRF4	JUN	MAF	MYB	NFATC3	NFKB1	RELA	STAT3	USF2
A1BG	0	0	1	0	1	1	0	1	0	0	0	1
NAT1	0	0	0	0	1	0	0	0	0	0	0	0
AAMP	1	0	0	1	0	0	0	1	0	0	0	0
AANAT	0	0	0	0	0	0	0	1	0	0	0	0
AARS	0	1	0	0	0	0	0	0	0	0	0	0
